<?xml version="1.0" standalone="no"?>
<!DOCTYPE svg PUBLIC "-//W3C//DTD SVG 1.1//EN" "http://www.w3.org/Graphics/SVG/1.1/DTD/svg11.dtd" >
<svg xmlns="http://www.w3.org/2000/svg">
<metadata>Generated by IcoMoon</metadata>
<defs>
<font id="icomoon" horiz-adv-x="1024">
<font-face units-per-em="1024" ascent="960" descent="-64" />
<missing-glyph horiz-adv-x="1024" />
<glyph unicode="&#x20;" horiz-adv-x="512" d="" />
<glyph unicode="&#xe900;" glyph-name="lien_download" d="M512 0c-243.2 0-448 204.8-448 448s204.8 448 448 448 448-204.8 448-448-204.8-448-448-448zM512 838.4c-211.2 0-390.4-179.2-390.4-390.4s172.8-390.4 390.4-390.4 390.4 172.8 390.4 390.4-179.2 390.4-390.4 390.4zM716.8 403.2h-160v294.4h-89.6v-288h-160l204.8-204.8 204.8 198.4z" />
<glyph unicode="&#xe901;" glyph-name="lien_externe" d="M883.2 736l76.8-89.6v249.6h-249.6l89.6-76.8-281.6-288 76.8-76.8 288 281.6zM64 780.8v-780.8h780.8v448h-102.4v-364.8h-576v608h345.6v89.6h-448z" />
</font></defs></svg>